2_alu_only/regfile.vcd
$date
	Fri Apr 12 00:09:28 2024
$end
$version
	Icarus Verilog
$end
$timescale
	1ps
$end
$scope module tb_regfile $end
$scope module dut $end
$var wire 1 ! clk $end
$var wire 5 " rd [4:0] $end
$var wire 32 # rd_data [31:0] $end
$var wire 1 $ reset $end
$var wire 5 % rs1 [4:0] $end
$var wire 5 & rs2 [4:0] $end
$var wire 1 ' write_enable $end
$var reg 32 ( data1 [31:0] $end
$var reg 32 ) data2 [31:0] $end
$scope begin $ivl_for_loop0 $end
$var integer 32 * i [31:0] $end
$upscope $end
$upscope $end
$upscope $end
$enddefinitions $end
$comment Show the parameter values. $end
$dumpall
$end
#0
$dumpvars
b0 *
bx )
bx (
0'
b0 &
b0 %
1$
b0 #
b0 "
0!
$end
#5000
b0 )
b0 (
b100000 *
1!
#10000
0$
0!
#15000
1!
#20000
1$
0!
#25000
b100000 *
1!
#30000
b10100101101001011010010110100101 #
1'
b1 "
0!
#35000
b100000 *
1!
#40000
b1011010010110100101101001011010 #
b10 "
0!
#45000
b100000 *
1!
#50000
b11111111111111111111111111111111 #
b11 "
0!
#55000
b100000 *
1!
#60000
b10 &
b1 %
0'
0!
#65000
b100000 *
1!
#70000
b100 %
0!
#75000
b100000 *
1!
#80000
0!
#85000
b100000 *
1!
#90000
0!
#95000
b100000 *
1!
#100000
0!
#105000
b100000 *
1!
#110000
0!
#115000
b100000 *
1!
#120000
0!
#125000
b100000 *
1!
#130000
0!
#135000
b100000 *
1!
#140000
0!
#145000
b100000 *
1!
#150000
0!
#155000
b100000 *
1!
#160000
0!
#165000
b100000 *
1!
#170000
0!
#175000
b100000 *
1!
#180000
0!
#185000
b100000 *
1!
#190000
0!
#195000
b100000 *
1!
#200000
0!
#205000
b100000 *
1!
#210000
0!
#215000
b100000 *
1!
#220000
0!
#225000
b100000 *
1!
#230000
0!
#235000
b100000 *
1!
#240000
0!
#245000
b100000 *
1!
#250000
0!
#255000
b100000 *
1!
#260000
0!
#265000
b100000 *
1!
#270000
0!
#275000
b100000 *
1!
#280000
0!
#285000
b100000 *
1!
#290000
0!
#295000
b100000 *
1!
#300000
0!
#305000
b100000 *
1!
#310000
0!
#315000
b100000 *
1!
#320000
0!
#325000
b100000 *
1!
#330000
0!
#335000
b100000 *
1!
#340000
0!
#345000
b100000 *
1!
#350000
0!
#355000
b100000 *
1!
#360000
0!
#365000
b100000 *
1!
#370000
0!
#375000
b100000 *
1!
#380000
0!
#385000
b100000 *
1!
#390000
0!
#395000
b100000 *
1!
#400000
0!
#405000
b100000 *
1!
#410000
0!
#415000
b100000 *
1!
#420000
0!
#425000
b100000 *
1!
#430000
0!
#435000
b100000 *
1!
#440000
0!
#445000
b100000 *
1!
#450000
0!
#455000
b100000 *
1!
#460000
0!
#465000
b100000 *
1!
#470000
0!
#475000
b100000 *
1!
#480000
0!
#485000
b100000 *
1!
#490000
0!
#495000
b100000 *
1!
#500000
0!
#505000
b100000 *
1!
#510000
0!
#515000
b100000 *
1!
#520000
0!
#525000
b100000 *
1!
#530000
0!
#535000
b100000 *
1!
#540000
0!
#545000
b100000 *
1!
#550000
0!
#555000
b100000 *
1!
#560000
0!
#565000
b100000 *
1!
#570000
0!
#575000
b100000 *
1!
#580000
0!
#585000
b100000 *
1!
#590000
0!
#595000
b100000 *
1!
#600000
0!
#605000
b100000 *
1!
#610000
0!
#615000
b100000 *
1!
#620000
0!
#625000
b100000 *
1!
#630000
0!
#635000
b100000 *
1!
#640000
0!
#645000
b100000 *
1!
#650000
0!
#655000
b100000 *
1!
#660000
0!
#665000
b100000 *
1!
#670000
0!
#675000
b100000 *
1!
#680000
0!
#685000
b100000 *
1!
#690000
0!
#695000
b100000 *
1!
#700000
0!
#705000
b100000 *
1!
#710000
0!
#715000
b100000 *
1!
#720000
0!
#725000
b100000 *
1!
#730000
0!
#735000
b100000 *
1!
#740000
0!
#745000
b100000 *
1!
#750000
0!
#755000
b100000 *
1!
#760000
0!
#765000
b100000 *
1!
#770000
0!
#775000
b100000 *
1!
#780000
0!
#785000
b100000 *
1!
#790000
0!
#795000
b100000 *
1!
#800000
0!
#805000
b100000 *
1!
#810000
0!
#815000
b100000 *
1!
#820000
0!
#825000
b100000 *
1!
#830000
0!
#835000
b100000 *
1!
#840000
0!
#845000
b100000 *
1!
#850000
0!
#855000
b100000 *
1!
#860000
0!
#865000
b100000 *
1!
#870000
0!
#875000
b100000 *
1!
#880000
0!
#885000
b100000 *
1!
#890000
0!
#895000
b100000 *
1!
#900000
0!
#905000
b100000 *
1!
#910000
0!
#915000
b100000 *
1!
#920000
0!
#925000
b100000 *
1!
#930000
0!
#935000
b100000 *
1!
#940000
0!
#945000
b100000 *
1!
#950000
0!
#955000
b100000 *
1!
#960000
0!
#965000
b100000 *
1!
#970000
0!
#975000
b100000 *
1!
#980000
0!
#985000
b100000 *
1!
#990000
0!
#995000
b100000 *
1!
#1000000
0!
#1005000
b100000 *
1!
#1010000
0!
#1015000
b100000 *
1!
#1020000
0!
#1025000
b100000 *
1!
#1030000
0!
#1035000
b100000 *
1!
#1040000
0!
#1045000
b100000 *
1!
#1050000
0!
#1055000
b100000 *
1!
#1060000
0!
#1065000
b100000 *
1!
#1070000
0!
#1075000
b100000 *
1!
